197.040480 136.142848 -46.217341   2.000000
350.430178 205.905152 -75.544438   2.000000
390.851704 221.671040 -10.466822   2.000000
 12.694850 190.236057 -69.108177   2.000000
726.737144 186.609271 -48.074172   2.000000
 71.044056 211.926556   1.353375   2.000000
 37.226114 200.614004 -62.904108   2.000000
512.066590 129.029096   1.033963   2.000000
267.460108 206.199744  -7.047082   2.000000
308.742725 241.922316 -38.405581   2.000000
 76.820134 198.080734 -43.835832   2.000000
645.543866 206.051710  -3.416355   2.000000
443.116504 178.274677 -66.178047   2.000000
291.815857 193.652191 -69.794696   2.000000
204.154382 217.431683  10.299462   2.000000
180.214879 130.768153 -57.968674   2.000000
386.002314 280.681333 -45.751356   2.000000
339.019645 119.140467 -38.845294   2.000000
535.726494 248.230886 -54.562844   2.000000
651.120394 201.452546 -68.114278   2.000000
