311.139345 136.142848 -46.217341   2.000000
377.182229 205.905152 -75.544438   2.000000
514.685711 221.671040 -10.466822   2.000000
 74.295893 190.236057 -69.108177   2.000000
 32.790930 186.609271 -48.074172   2.000000
163.855586 211.926556   1.353375   2.000000
126.072722 200.614004 -62.904108   2.000000
585.781921 129.029096   1.033963   2.000000
389.185758 206.199744  -7.047082   2.000000
429.024606 241.922316 -38.405581   2.000000
220.574997 198.080734 -43.835832   2.000000
-13.416355 206.051710  -3.416355   2.000000
518.215346 178.274677 -66.178047   2.000000
349.932175 193.652191 -69.794696   2.000000
257.305755 217.431683  10.299462   2.000000
263.948988 130.768153 -57.968674   2.000000
396.765013 280.681333 -45.751356   2.000000
431.396107 119.140467 -38.845294   2.000000
623.732437 248.230886 -54.562844   2.000000
716.957671 201.452546 -68.114278   2.000000
