254.089913 136.142848 -46.217341   2.000000
363.806203 205.905152 -75.544438   2.000000
452.768707 221.671040 -10.466822   2.000000
 43.495372 190.236057 -69.108177   2.000000
-35.357897 186.609271 -48.074172   2.000000
117.449821 211.926556   1.353375   2.000000
 81.649418 200.614004 -62.904108   2.000000
548.924255 129.029096   1.033963   2.000000
328.322933 206.199744  -7.047082   2.000000
368.883666 241.922316 -38.405581   2.000000
148.697566 198.080734 -43.835832   2.000000
700.997898 206.051710  -3.416355   2.000000
480.665925 178.274677 -66.178047   2.000000
320.874016 193.652191 -69.794696   2.000000
230.730069 217.431683  10.299462   2.000000
222.081933 130.768153 -57.968674   2.000000
391.383663 280.681333 -45.751356   2.000000
385.207876 119.140467 -38.845294   2.000000
579.729466 248.230886 -54.562844   2.000000
684.039032 201.452546 -68.114278   2.000000
